<?xml version="1.0" encoding="utf-8"?>
<!-- Generator: Adobe Illustrator 16.0.4, SVG Export Plug-In . SVG Version: 6.00 Build 0)  -->
<!DOCTYPE svg PUBLIC "-//W3C//DTD SVG 1.1//EN" "http://www.w3.org/Graphics/SVG/1.1/DTD/svg11.dtd">
<svg version="1.1" id="Layer_1" xmlns="http://www.w3.org/2000/svg" xmlns:xlink="http://www.w3.org/1999/xlink" x="0px" y="0px"
	 width="30px" height="25px" viewBox="69.719 2.364 30 45" enable-background="new 69.719 2.364 30 45" xml:space="preserve">
<g>
	<path fill="#a3a3a3" d="M69.719,17.818c0-0.228,0.085-0.456,0.256-0.632L84.066,2.64c0.171-0.177,0.406-0.276,0.653-0.276
		c0.246,0,0.481,0.1,0.653,0.276l14.091,14.545c0.349,0.361,0.34,0.937-0.021,1.286c-0.36,0.35-0.936,0.34-1.286-0.021L84.719,4.579
		L71.28,18.451c-0.349,0.36-0.924,0.37-1.285,0.021C69.811,18.293,69.719,18.056,69.719,17.818z"/>
</g>
<g>
	<path fill="#a3a3a3" d="M69.995,31.256c0.361-0.349,0.936-0.34,1.285,0.021l13.438,13.872l13.438-13.872
		c0.35-0.36,0.925-0.37,1.286-0.021c0.36,0.35,0.37,0.926,0.021,1.286L85.372,47.087c-0.172,0.177-0.407,0.277-0.653,0.277
		c-0.247,0-0.481-0.1-0.653-0.277L69.975,32.542c-0.171-0.177-0.256-0.404-0.256-0.632C69.719,31.671,69.811,31.434,69.995,31.256z"
		/>
</g>
</svg>
